na hora de montar o response ele está considerando apenas os dados que o front passa para o backend
 
percebi que o objeto de paginação tambem é diferente
 
no /receivables ele está assim:
"page": {

			"size": 10,

		    "totalElements": 50,

		    "totalPages": 5,

		    "number": 1

		}
 
no /history apenas esses 2:
 
teria que adequar a estrutura do history
 
e validar como está a lógica para montar esses objetos:
Rodrigues, Danilo
no /receivables ele está assim:  "page": {  			"size": 10,  		    "totalElements": 50,  		    "totalPages": 5,  		    "number": 1  		}
Rodrigues, Danilo
no /history apenas esses 2:   📷
 
 
ele deveria levar em consideração o que a Antecipa está retornando
 
